{
    "/assets/admin/js/core/app.js": "/assets/admin/js/core/app.js?id=afa5fb862c97f65be1c2",
    "/assets/admin/css/laraspace.css": "/assets/admin/css/laraspace.css?id=0f0d99ccfec8e1decdc4",
    "/assets/front/css/front.css": "/assets/front/css/front.css?id=3a05ecaba9f0a5724649",
    "/assets/admin/js/core/plugins.js": "/assets/admin/js/core/plugins.js?id=140de1d6c5ff53d10ceb",
    "/assets/front/js/plugins.js": "/assets/front/js/plugins.js?id=a544fdcc0da4cb298e85"
}